// Jest Snapshot v1, https://goo.gl/fbAQLP

exports[`test ServerError snapshot 1`] = `
<div
  className="server-error-page"
>
  <h1
    className="server-error-title"
  >
    500
  </h1>
  <div
    className="server-error-desc"
  >
    Oops! Something went wrong at our Server. Why don't you go back?
  </div>
  <Link
    replace={false}
    to="/"
  >
    <Button
      className="server-error-go-back-btn"
      ghost={false}
      loading={false}
      prefixCls="ant-btn"
      size="large"
      type="primary"
    >
      Go Back
    </Button>
  </Link>
</div>
`;
